{
  "user": [
    {
      "id": 3,
      "username": "Customer123",
      "nama": "Agus",
      "address": "JL. Karimata No.30, Sumbersari, Jember",
      "birthday": "01/01/2001",
      "phone": "085808241204",
      "password": "katasandi"
    },
    {
      "id": 1649857015973,
      "username": "customer",
      "nama": "ila rahma",
      "address": "sidoarjo",
      "birthday": "2021-12-01",
      "phone": "081973581923",
      "password": "123"
    }
  ],
  "studio": [
    {
      "id": 1649834284604,
      "studio": "",
      "alamat": "Jember",
      "deskripsi": "Studio Musik",
      "hp": "089765432420",
      "harga": "500000",
      "keterangan": "",
      "namaStudio": "Studio Music Classic"
    },
    {
      "id": 1649836198842,
      "studio": "",
      "alamat": "Sumbersari Jember",
      "deskripsi": "Studio untuk foto tema Tradisional",
      "hp": "087654376543",
      "harga": "300000",
      "keterangan": "",
      "namaStudio": "Studio Foto Tradisional"
    }
  ],
  "posts": [
    {
      "id": 1,
      "title": "json-server",
      "author": "typicode"
    }
  ],
  "comments": [
    {
      "id": 1,
      "body": "some comment",
      "postId": 1
    }
  ],
  "profile": {
    "name": "typicode"
  },
  "admin": [
    {
      "id": "1",
      "username": "wgwgrwqwrgqw",
      "email": "sdgasdg",
      "password": "asdgasdg",
      "hp": "asdgsfg"
    },
    {
      "id": 1649822186209,
      "username": "sggdns",
      "email": "dfgndfgm",
      "password": "dfgmndgn",
      "hp": "ghshwrhrtt",
      "keterangan": ""
    }
  ]
}